{
    "enabled": 1,
    "hidden": false,
    "description": "Simple Gitlab Example",
    "nixexprinput": "nixexpr",
    "nixexprpath": ".hydra/jobsets.nix",
    "checkinterval": 60,
    "schedulingshares": 100,
    "enableemail": false,
    "emailoverride": "",
    "keepnr": 3,
    "type": 0,
    "inputs": {
      "nixpkgs": {
        "value": "https://github.com/NixOS/nixpkgs 0f920b05cbcdb8c0f3c5c4a8ea29f1f0065c7033 ",
        "type": "git",
        "emailresponsible": false
      },
      "pulls": {
        "type": "gitlabpulls",
        "value": "https://gitlab.com 31319625",
        "emailresponsible": false
      },
      "nixexpr": {
        "value": "https://gitlab.com/Amerocu/hydra-test.git main",
        "type": "git",
        "emailresponsible": false
      }
    }
  }
  